<svg width="14" height="9" viewBox="0 0 14 9" fill="none" xmlns="http://www.w3.org/2000/svg">
<rect x="14" width="2.45455" height="2.47057" rx="1.22727" transform="rotate(90 14 0)" fill="#5E6769"/>
<rect x="8.23584" width="2.45455" height="2.47057" rx="1.22727" transform="rotate(90 8.23584 0)" fill="#5E6769"/>
<rect x="2.4707" width="2.45455" height="2.47057" rx="1.22727" transform="rotate(90 2.4707 0)" fill="#5E6769"/>
<rect x="14" y="6.54541" width="2.45455" height="2.47057" rx="1.22727" transform="rotate(90 14 6.54541)" fill="#5E6769"/>
<rect x="8.23584" y="6.54541" width="2.45455" height="2.47057" rx="1.22727" transform="rotate(90 8.23584 6.54541)" fill="#5E6769"/>
<rect x="2.4707" y="6.54541" width="2.45455" height="2.47057" rx="1.22727" transform="rotate(90 2.4707 6.54541)" fill="#5E6769"/>
</svg>
