<svg width="64" height="64" viewBox="0 0 64 64" fill="none" xmlns="http://www.w3.org/2000/svg">
<path d="M23.607 49.5153C23.055 48.9623 22.169 48.9503 21.559 49.5173C21.288 49.7893 21.14 50.1463 21.142 50.4533L21.118 50.8343H12.12V39.3133C12.12 38.5133 11.47 37.8633 10.67 37.8633C9.85697 37.8633 9.21997 38.5003 9.21997 39.3133V52.2733C9.21997 53.0863 9.85697 53.7223 10.67 53.7223H21.108L21.143 54.0563C21.163 54.3623 21.291 54.6643 21.511 54.9153L21.593 54.9993C21.876 55.2623 22.234 55.3933 22.59 55.3933C22.96 55.3933 23.328 55.2523 23.609 54.9703L25.312 53.2683C25.586 52.9923 25.731 52.6373 25.731 52.2433C25.731 51.8493 25.586 51.4943 25.309 51.2163L23.607 49.5153Z" fill="white"/>
<path d="M40.393 14.4849C40.945 15.0379 41.831 15.0499 42.441 14.4829C42.712 14.2109 42.86 13.8539 42.858 13.5469L42.882 13.1659H51.88V24.6869C51.88 25.4869 52.53 26.1369 53.33 26.1369C54.143 26.1369 54.78 25.4999 54.78 24.6869V11.7269C54.78 10.9139 54.143 10.2779 53.33 10.2779H42.892L42.857 9.94393C42.837 9.63793 42.709 9.33593 42.489 9.08493L42.407 9.00093C42.124 8.73793 41.766 8.60693 41.41 8.60693C41.04 8.60693 40.672 8.74793 40.391 9.02993L38.688 10.7319C38.414 11.0079 38.269 11.3629 38.269 11.7569C38.269 12.1509 38.414 12.5059 38.691 12.7839L40.393 14.4849Z" fill="white"/>
<path d="M31.088 15.474C31.233 15.519 31.382 15.549 31.531 15.549C31.556 15.549 31.581 15.542 31.606 15.541C31.622 15.542 31.638 15.549 31.655 15.549C32.091 15.549 32.523 15.36 32.82 14.995C33.342 14.352 33.246 13.408 32.603 12.885L17.849 0.885043C17.556 0.647043 17.197 0.544043 16.841 0.559043C16.485 0.544043 16.125 0.647043 15.833 0.885043L1.07905 12.885C0.436046 13.407 0.339046 14.352 0.862046 14.995C1.18905 15.398 1.68305 15.586 2.16405 15.542C2.30905 15.541 2.45305 15.523 2.59305 15.479V30.506C2.59305 31.619 3.49805 32.524 4.61105 32.524H29.071C30.183 32.524 31.089 31.619 31.089 30.506V15.474H31.088ZM19.231 29.525H14.45V19.908C14.45 18.58 15.452 17.439 16.685 17.364C17.384 17.322 18.042 17.569 18.526 18.049C18.981 18.511 19.231 19.116 19.231 19.752V29.525ZM28.088 29.525H22.231V19.751C22.231 18.324 21.675 16.972 20.652 15.932C19.539 14.828 18.068 14.275 16.502 14.37C13.669 14.543 11.451 16.976 11.451 19.909V29.526H5.59305V13.181L16.841 4.03304L28.089 13.181V29.525H28.088Z" fill="white"/>
<path d="M62.9221 43.8011L48.1681 31.8011C47.8751 31.5631 47.5161 31.4601 47.1601 31.4751C46.8041 31.4601 46.4441 31.5631 46.1521 31.8011L31.3981 43.8011C30.7551 44.3241 30.6581 45.2691 31.1811 45.9111C31.5081 46.3131 32.0021 46.5011 32.4831 46.4571C32.6281 46.4561 32.7721 46.4381 32.9131 46.3951V61.4231C32.9131 62.5361 33.8181 63.4421 34.9311 63.4421H59.3911C60.5031 63.4421 61.4091 62.5371 61.4091 61.4231V46.3901C61.5541 46.4351 61.7031 46.4651 61.8521 46.4651C61.8771 46.4651 61.9021 46.4581 61.9271 46.4571C61.9431 46.4581 61.9591 46.4651 61.9761 46.4651C62.4121 46.4651 62.8441 46.2761 63.1411 45.9111C63.6621 45.2691 63.5641 44.3251 62.9221 43.8011ZM49.5501 60.4421H44.7701V50.8251C44.7701 49.4981 45.7721 48.3561 47.0051 48.2811C47.6921 48.2421 48.3611 48.4851 48.8461 48.9671C49.3001 49.4281 49.5501 50.0321 49.5501 50.6681V60.4421ZM58.4071 60.4421H52.5501V50.6681C52.5501 49.2391 51.9931 47.8881 50.9721 46.8501C49.8761 45.7621 48.3701 45.1921 46.8211 45.2871C43.9891 45.4601 41.7701 47.8921 41.7701 50.8251V60.4421H35.9131V44.0981L47.1611 34.9501L58.4091 44.0981V60.4421H58.4071Z" fill="white"/>
</svg>
