<svg width="25" height="24" viewBox="0 0 25 24" fill="none" xmlns="http://www.w3.org/2000/svg">
<g clip-path="url(#clip0_213_2064)">
<path d="M21.6182 4H3.61816C2.51359 4 1.61816 4.89543 1.61816 6V18C1.61816 19.1046 2.51359 20 3.61816 20H21.6182C22.7227 20 23.6182 19.1046 23.6182 18V6C23.6182 4.89543 22.7227 4 21.6182 4Z" stroke="white" stroke-linecap="round" stroke-linejoin="round"/>
<path d="M1.61816 10H23.6182" stroke="white" stroke-linecap="round" stroke-linejoin="round"/>
</g>
<defs>
<clipPath id="clip0_213_2064">
<rect width="24" height="24" fill="white" transform="translate(0.618164)"/>
</clipPath>
</defs>
</svg>
