<svg width="23" height="23" viewBox="0 0 23 23" fill="none" xmlns="http://www.w3.org/2000/svg">
<path d="M15.8125 7.66668C15.8125 9.10418 15.3333 11.0208 13.0333 11.7875C13.7042 10.1583 13.8 8.52918 13.3208 6.99585C12.65 4.98335 10.4458 3.45001 8.9125 2.58751C8.52916 2.30001 7.85833 2.68335 7.95416 3.25835C7.95416 4.31251 7.66667 5.84585 6.0375 7.47501C3.92917 9.58335 2.875 11.7875 2.875 13.8958C2.875 16.675 4.79167 20.125 8.625 20.125C4.79167 16.2917 7.66666 12.9375 7.66666 12.9375C8.43333 18.5917 12.4583 20.125 14.375 20.125C16.0042 20.125 19.1667 18.975 19.1667 13.9917C19.1667 11.0208 17.9208 8.72085 16.8667 7.37918C16.5792 6.90001 15.9083 7.18751 15.8125 7.66668Z" fill="#FC9E27"/>
</svg>
