<svg width="19" height="19" viewBox="0 0 19 19" fill="none" xmlns="http://www.w3.org/2000/svg">
<path d="M9.10303 16.688C13.2924 16.688 16.6885 13.2919 16.6885 9.10254C16.6885 4.91321 13.2924 1.51709 9.10303 1.51709C4.9137 1.51709 1.51758 4.91321 1.51758 9.10254C1.51758 13.2919 4.9137 16.688 9.10303 16.688Z" stroke="#191919" stroke-linecap="round" stroke-linejoin="round"/>
<path d="M9.10156 12.1367V9.10254" stroke="#191919" stroke-linecap="round" stroke-linejoin="round"/>
<path d="M9.10156 6.06836H9.10872" stroke="#191919" stroke-linecap="round" stroke-linejoin="round"/>
</svg>
