<svg width="64" height="64" viewBox="0 0 64 64" fill="none" xmlns="http://www.w3.org/2000/svg">
<path d="M62.779 17.5991L62.602 17.4231L56.828 14.6001C56.569 14.4731 56.301 14.3631 56.028 14.2691L56.025 14.2681C55.299 14.0191 54.538 13.8921 53.77 13.8921H15.88V10.2241C15.88 9.45909 15.754 8.70009 15.507 7.97609C15.412 7.69909 15.301 7.42809 15.172 7.16609L12.348 1.39609L12.172 1.21909C11.218 0.26309 9.657 0.26209 8.702 1.21709L8.522 1.39509L5.699 7.16609C5.57 7.42809 5.458 7.69809 5.364 7.97509V7.97609C5.116 8.69909 4.99 9.45909 4.99 10.2251V13.8921H2.956C1.6 13.8921 0.5 14.9911 0.5 16.3481V22.3271C0.5 23.6831 1.599 24.7831 2.956 24.7831H4.99V61.0411C4.99 62.4001 6.091 63.5011 7.45 63.5011H13.42C14.779 63.5011 15.88 62.4001 15.88 61.0411V24.7811H24.07V30.5981H21.37C20.035 30.5981 18.953 31.6801 18.953 33.0151V60.5361C18.953 61.8711 20.035 62.9531 21.37 62.9531H54.63C55.965 62.9531 57.047 61.8711 57.047 60.5361V33.0161C57.047 31.6811 55.965 30.5991 54.63 30.5991H51.93V24.7821H53.771C54.54 24.7821 55.304 24.6541 56.031 24.4041C56.302 24.3111 56.567 24.2011 56.825 24.0751L62.602 21.2501L62.779 21.0741C63.244 20.6101 63.5 19.9931 63.5 19.3361C63.5 18.6801 63.244 18.0631 62.779 17.5991ZM7.99 9.29009L10.435 4.31209L12.862 9.27109L12.875 13.8911H7.99V9.29009ZM12.88 60.4991H7.99V24.7811H12.88V60.4991ZM54.047 33.5991V59.9541H21.953V33.5991H54.047ZM27.07 30.5991V24.7821H48.93V30.5991H27.07ZM54.721 21.7641L3.5 21.7811V16.8911H54.704L59.686 19.3351L54.721 21.7641Z" fill="white"/>
<path d="M28.046 46.614V56.038C28.046 57.055 28.873 57.882 29.889 57.882H46.11C47.127 57.882 47.954 57.055 47.954 56.038V46.609C48.344 46.575 48.722 46.397 48.989 46.069C49.511 45.426 49.414 44.482 48.771 43.959L38.987 36.001C38.7 35.768 38.349 35.663 38 35.672C37.651 35.662 37.3 35.767 37.012 36.001L27.227 43.959C26.584 44.482 26.487 45.427 27.01 46.069C27.278 46.397 27.655 46.581 28.046 46.614ZM39.08 54.881H36.92V49.008C36.92 48.39 37.372 47.86 37.928 47.825C38.257 47.815 38.545 47.918 38.757 48.128C38.877 48.251 39.08 48.516 39.08 48.904V54.881ZM31.046 44.788L38 39.132L44.954 44.788V54.882H42.08V48.905C42.08 47.826 41.66 46.804 40.884 46.013C40.054 45.19 38.895 44.764 37.745 44.831C35.599 44.962 33.92 46.796 33.92 49.008V54.881H31.046V44.788Z" fill="white"/>
</svg>
