<svg width="27" height="27" viewBox="0 0 27 27" fill="none" xmlns="http://www.w3.org/2000/svg">
<path d="M15.75 15.75H24.75V24.75H15.75V15.75Z" stroke="white" stroke-width="2" stroke-linejoin="round"/>
<path d="M7.3125 2.25L12.375 11.25H2.25L7.3125 2.25Z" stroke="white" stroke-width="2" stroke-linejoin="round"/>
<path d="M20.25 11.25C21.4435 11.25 22.5881 10.7759 23.432 9.93198C24.2759 9.08807 24.75 7.94348 24.75 6.75C24.75 5.55653 24.2759 4.41193 23.432 3.56802C22.5881 2.72411 21.4435 2.25 20.25 2.25C19.0565 2.25 17.9119 2.72411 17.068 3.56802C16.2241 4.41193 15.75 5.55653 15.75 6.75C15.75 7.94348 16.2241 9.08807 17.068 9.93198C17.9119 10.7759 19.0565 11.25 20.25 11.25Z" stroke="white" stroke-width="2" stroke-linejoin="round"/>
<path d="M2.25 15.75L11.25 24.75" stroke="white" stroke-width="2" stroke-linecap="round" stroke-linejoin="round"/>
<path d="M11.25 15.75L2.25 24.75" stroke="white" stroke-width="2" stroke-linecap="round" stroke-linejoin="round"/>
</svg>
