<svg width="19" height="19" viewBox="0 0 19 19" fill="none" xmlns="http://www.w3.org/2000/svg">
<path d="M3.78516 9.08325H14.3824" stroke="#FBB03B" stroke-linecap="round" stroke-linejoin="round"/>
<path d="M9.08398 14.3818L9.08398 3.78461" stroke="#FBB03B" stroke-linecap="round" stroke-linejoin="round"/>
</svg>
