<svg width="30" height="25" viewBox="0 0 30 25" fill="none" xmlns="http://www.w3.org/2000/svg">
<rect y="3.44824" width="29.3103" height="0.862069" rx="0.431034" fill="#191919"/>
<rect y="20.6897" width="29.3103" height="0.862069" rx="0.431034" fill="#191919"/>
<rect y="12.0688" width="29.3103" height="0.862069" rx="0.431034" fill="#191919"/>
<circle cx="7.32853" cy="3.87931" r="3.37931" fill="white" stroke="#191919"/>
<circle cx="7.32853" cy="21.1205" r="3.37931" fill="white" stroke="#191919"/>
<circle cx="21.9828" cy="12.4999" r="3.37931" fill="white" stroke="#191919"/>
</svg>
