<svg width="25" height="23" viewBox="0 0 25 23" fill="none" xmlns="http://www.w3.org/2000/svg">
<path d="M9.92453 8.84H2L8.73585 14.16L6.35849 21L12.6981 16.82L19.434 21L17.0566 14.16L23 8.84H15.4717L12.6981 2L9.92453 8.84Z" fill="#FBB03B" stroke="#FBB03B"/>
</svg>
