<svg width="46" height="46" viewBox="0 0 46 46" fill="none" xmlns="http://www.w3.org/2000/svg">
<path d="M16.9652 16.6833L23 1.36417L29.0348 16.6833L29.1596 17H29.5H44.5948L32.1842 27.1124L31.9093 27.3363L32.0297 27.6698L37.9614 44.0961L23.3 33.1L22.9952 32.8714L22.6939 33.1046L8.49446 44.0978L13.9743 27.6581L14.0835 27.3305L13.8158 27.1124L1.40518 17H16.5H16.8404L16.9652 16.6833Z" fill="#F1B254" stroke="#F1B254"/>
</svg>
